INDEX VERSION 1.131+C:\Users\franc\Desktop\MASTER\4.-Framework Backend y Microservicios\peliculasapp\.metadata\.plugins\org.eclipse.jdt.core
3962081508.index
1435506878.index
1021056186.index
2702987721.index
399579136.index
1575818390.index
208089862.index
3623217282.index
2594730983.index
4293790593.index
2870211827.index
753241113.index
1227786778.index
2108059215.index
2388274008.index
2400003457.index
98703058.index
1616986975.index
24486132.index
754878322.index
831524148.index
1323656503.index
2864487931.index
3267678635.index
2839959488.index
